Final Project
…
Getting Started

First, download the data set from the required tools above. Because the data is in the form of a CSV file, it will be very easy for us to use and manipulate. Although there are actually 3 CSV files in this dataset, we will only be using player_data.csv and Seasons_Stats.csv, as player_data.csv and Players.csv are very similar. Now, to get the data into R, we will use the aptly named function read_csv. Using the path to the CSV files in your computer, we can create variables holding the data.

# Replace the path to the csv with the correct patch for your specific computer
players <- read_csv("C:\\Users\\Eli Rudman\\Desktop\\CS\\320\\Final Project Data\\player_data.csv")
teams <- read_csv("C:\\Users\\Eli Rudman\\Desktop\\CS\\320\\Final Project Data\\Seasons_Stats.csv", col_types = cols(Player=col_character(), Pos=col_character(), Tm=col_character(), .default=col_double()))

However, some prior knowledge about the column types is needed here. The read_csv function is normally pretty good about detecting what datatype is appropriate for a column (Ex: A double for a quantity column, or character for a name column). However, because a lot of the data for players/teams is missing (especially for the earlier years of the data set), the read_csv function actually guesses the datatype incorrectly for a lot of the columns. Because of this, I specify what datatype I want the column to be parsed as when read_csv is parsing the data. Because most of the data is statistics, having double as the default datatype is a safe bet, but obviously it wouldnt make sense for columns like the players name.

R uses a datatype called a data frame to hold these csv files. The two data frames we create can now be seen:

players

## # A tibble: 4,550 x 8
##    name    year_start year_end position height weight birth_date  college  
##    <chr>        <dbl>    <dbl> <chr>    <chr>   <dbl> <chr>       <chr>    
##  1 Alaa A~       1991     1995 F-C      6-10      240 June 24, 1~ Duke Uni~
##  2 Zaid A~       1969     1978 C-F      6-9       235 April 7, 1~ Iowa Sta~
##  3 Kareem~       1970     1989 C        7-2       225 April 16, ~ Universi~
##  4 Mahmou~       1991     2001 G        6-1       162 March 9, 1~ Louisian~
##  5 Tariq ~       1998     2003 F        6-6       223 November 3~ San Jose~
##  6 Sharee~       1997     2008 F        6-9       225 December 1~ Universi~
##  7 Tom Ab~       1977     1981 F        6-7       220 May 6, 1954 Indiana ~
##  8 Forest~       1957     1957 G        6-3       180 July 27, 1~ Western ~
##  9 John A~       1947     1948 F        6-3       195 February 9~ Salem In~
## 10 Alex A~       2017     2018 G-F      6-6       190 August 1, ~ <NA>     
## # ... with 4,540 more rows

teams

## # A tibble: 24,691 x 53
##       X1  Year Player Pos     Age Tm        G    GS    MP   PER `TS%`
##    <dbl> <dbl> <chr>  <chr> <dbl> <chr> <dbl> <dbl> <dbl> <dbl> <dbl>
##  1     0  1950 Curly~ G-F      31 FTW      63    NA    NA    NA 0.368
##  2     1  1950 Cliff~ SG       29 INO      49    NA    NA    NA 0.435
##  3     2  1950 Leo B~ SF       25 CHS      67    NA    NA    NA 0.394
##  4     3  1950 Ed Ba~ F        24 TOT      15    NA    NA    NA 0.312
##  5     4  1950 Ed Ba~ F        24 DNN      13    NA    NA    NA 0.308
##  6     5  1950 Ed Ba~ F        24 NYK       2    NA    NA    NA 0.376
##  7     6  1950 Ralph~ G        22 INO      60    NA    NA    NA 0.422
##  8     7  1950 Gene ~ G-F      23 TRI       3    NA    NA    NA 0.275
##  9     8  1950 Charl~ F-C      28 TOT      65    NA    NA    NA 0.346
## 10     9  1950 Charl~ F-C      28 FTW      36    NA    NA    NA 0.362
## # ... with 24,681 more rows, and 42 more variables: `3PAr` <dbl>,
## #   FTr <dbl>, `ORB%` <dbl>, `DRB%` <dbl>, `TRB%` <dbl>, `AST%` <dbl>,
## #   `STL%` <dbl>, `BLK%` <dbl>, `TOV%` <dbl>, `USG%` <dbl>, blanl <dbl>,
## #   OWS <dbl>, DWS <dbl>, WS <dbl>, `WS/48` <dbl>, blank2 <dbl>,
## #   OBPM <dbl>, DBPM <dbl>, BPM <dbl>, VORP <dbl>, FG <dbl>, FGA <dbl>,
## #   `FG%` <dbl>, `3P` <dbl>, `3PA` <dbl>, `3P%` <dbl>, `2P` <dbl>,
## #   `2PA` <dbl>, `2P%` <dbl>, `eFG%` <dbl>, FT <dbl>, FTA <dbl>,
## #   `FT%` <dbl>, ORB <dbl>, DRB <dbl>, TRB <dbl>, AST <dbl>, STL <dbl>,
## #   BLK <dbl>, TOV <dbl>, PF <dbl>, PTS <dbl>
…
By performing these actions, our tables are now more appropriate for our research and easier to digest.

Exploring the Data

Now that our data is more suitable for what we want, we can perform analysis on it. This analysis will attempt to find overall trends and patterns in our data so that we can possibly begin to find relationships or correlations between variables.

To begin, we can start with some very simple but useful functions that R provides. For example, we can use arrange to sort the data on some criteria, in this case 3pt percentage. Also, because it is very easy to have a higher percentage with very low 3pt shots attempted, we require an arbitrary number of at least 200 3pt shots attempted in the season. Along with this, to make the data more managable, we select only the attributes that are pertinent to this specific query like the players name, the year, etc

teams %>%
  filter(`3PA` > 200) %>%
  arrange(desc(`3P%`)) %>%
  # 3P% = the 3pt percentage and 3PA = their 3pt attempts
  select(Year, Player, Pos, Team, `3P%`, `3PA`)

## # A tibble: 2,147 x 6
##     Year Player         Pos   Team  `3P%` `3PA`
##    <dbl> <chr>          <chr> <chr> <dbl> <dbl>
##  1  1996 Tim Legler     SG    WSB   0.522   245
##  2  1996 Steve Kerr     PG    CHI   0.515   237
##  3  2007 Jason Kapono   SF    MIA   0.514   210
##  4  2015 Kyle Korver    SG    ATL   0.492   449
##  5  1989 Dale Ellis     SG    SEA   0.478   339
##  6  2005 Joe Johnson    SF    PHO   0.478   370
##  7  1996 Hubert Davis   SG    NYK   0.476   267
##  8  2001 Brent Barry    SG    SEA   0.476   229
##  9  2016 J.J. Redick    SG    LAC   0.475   421
## 10  1996 B.J. Armstrong PG    GSW   0.473   207
## # ... with 2,137 more rows

Similar other functions include summarize and group_by. Summarize allows you to summarize an attribute value over all the entities in the data frame. For example, we can find the highest number of 3pt attempts in a season. Because na in R is essentially missing data, here we remove the missing data by setting na.rm to TRUE.

summarize(teams, `3pt attempts in a season`=max(`3PA`, na.rm=TRUE))

## # A tibble: 1 x 1
##   `3pt attempts in a season`
##                        <dbl>
## 1                        886

group_by allows you to group entities based on some conditional. This can be especially powerful when used together with summarize. For example, we can find what the average 3pt percentage was for the teams per year.

teams

## # A tibble: 18,927 x 49
##     Year Player Pos     Age Team      G    MP   PER `TS%` `3PAr`   FTr
##    <dbl> <chr>  <chr> <dbl> <chr> <dbl> <dbl> <dbl> <dbl>  <dbl> <dbl>
##  1  1980 Karee~ C        32 LAL      82  3143  25.3 0.639  0.001 0.344
##  2  1980 Tom A~ PF       25 GSW      67  1222  11   0.511  0.003 0.258
##  3  1980 Alvan~ C        25 PHO      75  2168  19.2 0.571  0.002 0.27 
##  4  1980 Tiny ~ PG       31 BOS      80  2864  15.3 0.574  0.023 0.548
##  5  1980 Denni~ C        31 CHI      26   560   7.4 0.524  0     0.833
##  6  1980 Gus B~ SG       28 WSB      20   180   9.3 0.467  0.029 0.371
##  7  1980 James~ PF       22 SEA      67   726  12.3 0.495  0     0.373
##  8  1980 Greg ~ SF       25 WSB      82  2438  18.1 0.532  0.043 0.206
##  9  1980 Mike ~ SF       28 IND      77  2330  13.7 0.533  0.004 0.275
## 10  1980 Marvi~ PF       27 SDC      20   287   8.2 0.432  0     0.533
## # ... with 18,917 more rows, and 38 more variables: `ORB%` <dbl>,
## #   `DRB%` <dbl>, `TRB%` <dbl>, `AST%` <dbl>, `STL%` <dbl>, `BLK%` <dbl>,
## #   `TOV%` <dbl>, `USG%` <dbl>, OWS <dbl>, DWS <dbl>, WS <dbl>,
## #   `WS/48` <dbl>, OBPM <dbl>, DBPM <dbl>, BPM <dbl>, VORP <dbl>,
## #   FG <dbl>, FGA <dbl>, `FG%` <dbl>, `3P` <dbl>, `3PA` <dbl>,
## #   `3P%` <dbl>, `2P` <dbl>, `2PA` <dbl>, `2P%` <dbl>, `eFG%` <dbl>,
## #   FT <dbl>, FTA <dbl>, `FT%` <dbl>, ORB <dbl>, DRB <dbl>, TRB <dbl>,
## #   AST <dbl>, STL <dbl>, BLK <dbl>, TOV <dbl>, PF <dbl>, PTS <dbl>

teams %>%
  group_by(Team, Year) %>%
  summarize(mean(`3P%`, na.rm=TRUE))

## # A tibble: 1,082 x 3
## # Groups:   Team [41]
##    Team   Year `mean(\`3P%\`, na.rm = TRUE)`
##    <chr> <dbl>                         <dbl>
##  1 ATL    1980                        0.133 
##  2 ATL    1981                        0.0636
##  3 ATL    1982                        0.212 
##  4 ATL    1983                        0.108 
##  5 ATL    1984                        0.18  
##  6 ATL    1985                        0.242 
##  7 ATL    1986                        0.196 
##  8 ATL    1987                        0.199 
##  9 ATL    1988                        0.265 
## 10 ATL    1989                        0.158 
## # ... with 1,072 more rows
…
